{
  "root": {
    "child1": {
      "child1": {
        "child1": {
          "child1": 5,
          "child2": 3,
          "child3": 6
        },
        "child2": {
          "child1": 2,
          "child2": 9
        },
        "child3": {
          "child1": 10,
          "child2": 11,
          "child3": 2
        }
      },
      "child2": {
        "child1": 3,
        "child2": 1
      },
      "child3": {
        "child1": 12,
        "child2": 10,
        "child3": 9
      }
    },
    "child2": {
      "child1": {
        "child1": 11,
        "child2": 3,
        "child3": 2
      },
      "child2": {
        "child1": 21,
        "child2": 13
      }
    },
    "child3": {
      "child1": {
        "child1": 22,
        "child2": {
          "child1": 15,
          "child2": 16,
          "child3": 14
        },
        "child3": 7
      },
      "child2": {
        "child1": 10,
        "child2": 1,
        "child3": 8
      },
      "child3": 13
    }
  }
}
