{
  "root": {
    "child1": {
      "child1": {
        "child1": {
          "child1": 5.5,
          "child2": 3.0
        },
        "child2": 2.1
      },
      "child2": {
        "child1": 3.6,
        "child2": 1.4
      }
    },
    "child2": {
      "child1": {
        "child1": 11.9,
        "child2": 3.7
      },
      "child2": {
        "child1": 21.0,
        "child2": 13.8
      }
    }
  }
}
